Project 1 NBA Team Data
…
## # A tibble: 6 x 3
##   Year    Team      Continuity
##   <chr>   <chr>     <chr>     
## 1 2016-17 Hawks     78%       
## 2 2016-17 Celtics   82%       
## 3 2016-17 Hornets   78%       
## 4 2016-17 Bulls     51%       
## 5 2016-17 Cavaliers 87%       
## 6 2016-17 Mavericks 55%

Here I begin cleaning up the last dataset, NBA records, which only required som variable removal.

NBARec %>% select(-contains("X"))

## # A tibble: 2,022 x 4
##    Year      Team    Record `Winning Percentage`
##    <chr>     <chr>   <chr>                 <dbl>
##  1 2016-17   Celtics 25-15                 0.625
##  2 2015-16   Celtics 48-34                 0.585
##  3 2014-15   Celtics 40-42                 0.488
##  4 2013-14   Celtics 25-57                 0.305
##  5 2012-13   Celtics 41-40                 0.506
##  6 2011-12 * Celtics 39-27                 0.591
##  7 2010-11   Celtics 56-26                 0.683
##  8 2009-10   Celtics 50-32                 0.61 
##  9 2008-09   Celtics 62-20                 0.756
## 10 2007-08   Celtics 66-16                 0.805
## # … with 2,012 more rows
…
In this table I used summarize to generate column with mean home attendance for each team from a 2000-01 to 2016-17 span. Here I grouped by Team, then used summarize to generate a new column displaying the mean of total home attendance overall.

NBAfinaldata %>% group_by(Team) %>% summarize(mean_home_att = mean(`Home: Total Attendance`, 
    na.rm = T)) %>% arrange(desc(mean_home_att))

## # A tibble: 30 x 2
##    Team          mean_home_att
##    <chr>                 <dbl>
##  1 Bulls               856342.
##  2 Mavericks           804674.
##  3 Knicks              790358.
##  4 Jazz                776333.
##  5 Trail Blazers       769936.
##  6 Lakers              767721.
##  7 Spurs               763349.
##  8 Heat                753166.
##  9 Raptors             749821.
## 10 Pistons             747342.
## # … with 20 more rows

Here I created new variable using mutate. Taking the mean of the away and home attendance variables.

NBAfinaldata %>% mutate(avg_game_att = (`Home: Avg Attendance` + 
    `Away:Avg Attendance`)/2)

## # A tibble: 522 x 12
##    Year  `Total Home Att… Team  `Home: Total Ga… `Home: Total At…
##    <chr>            <dbl> <chr>            <dbl>            <dbl>
##  1 2015…                1 Bulls               41           894659
##  2 2015…                2 Cava…               41           843042
##  3 2015…                3 Mave…               41           825901
##  4 2015…                4 Rapt…               41           812863
##  5 2015…                5 Knic…               41           812292
##  6 2015…                6 Heat                41           809350
##  7 2015…                7 Warr…               41           803436
##  8 2015…                8 Trai…               41           794085
##  9 2015…                9 Jazz                41           791489
## 10 2015…               10 Clip…               41           786910
## # … with 512 more rows, and 7 more variables: `Home: Avg Attendance` <dbl>,
## #   `Away: Total Games` <dbl>, `Away:Avg Attendance` <dbl>, Record <chr>,
## #   `Winning Percentage` <dbl>, Continuity <dbl>, avg_game_att <dbl>
…
